Analyzing the Utah Bikeways data – Analytics
…
# View the results
road_miles_by_city |>
  dplyr::arrange(dplyr::desc(total_lane_miles))

# A tibble: 256 × 2
   city_name        total_lane_miles
   <chr>                      [mile]
 1 <NA>                       98275.
 2 Salt Lake City               905.
 3 St. George                   766.
 4 West Valley City             478.
 5 West Jordan                  475.
 6 Lehi                         423.
 7 Sandy                        417.
 8 South Jordan                 412.
 9 Layton                       383.
10 Provo                        380.
# ℹ 246 more rows
…
bikeway_miles_by_city

# A tibble: 256 × 12
   city_name     `Bike lane (2B)` `Not Available` `Shoulder bikeway (3A)`
   <chr>                    <dbl>           <dbl>                   <dbl>
 1 Alpine                    1.43          124.                    15.5  
 2 Alta                      0               8.90                   2.08 
 3 Altamont                  0               5.19                   0    
 4 Alton                     0              16.4                    5.96 
 5 Amalga                    0              32.9                    0    
 6 American Fork             9.41          308.                    19.7  
 7 Annabella                 0              20.3                    3.31 
 8 Antimony                  0             107.                     0    
 9 Apple Valley              0             134.                     0.714
10 Aurora                    0              27.8                    0.698
# ℹ 246 more rows
# ℹ 8 more variables: `Trail or Pathway` <dbl>,
#   `Signed shared roadway (3C)` <dbl>, `Buffered bike lane (2A)` <dbl>,
#   `Cycle track, raised and curb separated (1C)` <dbl>,
#   `Marked shared roadway (3B)` <dbl>,
#   `Cycle track, at-grade, protected with parking (1A)` <dbl>,
#   `Cycle track, protected with barrier (1B)` <dbl>, …
…
The final step combines road lane miles and bikeway lane miles by facility type into a single dataset. This allows for direct comparison of roadway and bikeway infrastructure across municipalities.

Each row represents a municipality, with columns for total road lane miles followed by columns for each bikeway facility type. Cities with zero bikeway miles for a particular facility type will show 0 in that column.

Show the code
# Combine with roads
combined_miles_by_city <- road_miles_by_city |>
  dplyr::mutate(road_lane_miles = as.numeric(total_lane_miles)) |>
  dplyr::select(city_name, road_lane_miles) |>
  dplyr::full_join(bikeway_miles_by_city, by = "city_name")

combined_miles_by_city |>
  dplyr::arrange(dplyr::desc(road_lane_miles))

# A tibble: 256 × 13
   city_name        road_lane_miles `Bike lane (2B)` `Not Available`
   <chr>                      <dbl>            <dbl>           <dbl>
 1 <NA>                      98275.            10.2           53260.
 2 Salt Lake City              905.           234.             1042.
 3 St. George                  766.            13.6             875.
 4 West Valley City            478.            26.8             793.
 5 West Jordan                 475.            58.2             717.
 6 Lehi                        423.             9.68            668.
 7 Sandy                       417.            45.4             634.
 8 South Jordan                412.            65.0             640.
 9 Layton                      383.            13.5             603.
10 Provo                       380.            86.0             529.
# ℹ 246 more rows
# ℹ 9 more variables: `Shoulder bikeway (3A)` <dbl>, `Trail or Pathway` <dbl>,
#   `Signed shared roadway (3C)` <dbl>, `Buffered bike lane (2A)` <dbl>,
#   `Cycle track, raised and curb separated (1C)` <dbl>,
#   `Marked shared roadway (3B)` <dbl>,
#   `Cycle track, at-grade, protected with parking (1A)` <dbl>,
#   `Cycle track, protected with barrier (1B)` <dbl>, …
…
